chord,onset,offset,duration
N,0.0,0.43119,0.43119
F:min,0.43119,1.604984,1.173794
Ab:maj,1.604984,3.449518,1.844534
Eb:maj,3.449518,4.599357,1.1498390000000005
Db:maj,4.599357,6.539711,1.9403539999999992
F:min,6.539711,7.713506,1.1737950000000001
Ab:maj,7.713506,9.629904,1.916398
Eb:maj,9.629904,10.683924,1.0540199999999995
Db:maj,10.683924,12.624278,1.940354000000001
F:min,12.624278,13.678297,1.0540190000000003
Ab:maj,13.678297,15.618651,1.9403539999999992
Eb:maj,15.618651,16.86431,1.2456589999999998
Db:maj,16.86431,18.636979,1.7726690000000005
F:min,18.636979,19.834728,1.1977489999999982
Ab:maj,19.834728,21.751127,1.916399000000002
Eb:maj,21.751127,22.853057,1.1019299999999994
Db:maj,22.853057,24.817366,1.964309
F:min,24.817366,25.871385,1.0540190000000003
Ab:maj,25.871385,27.787784,1.9163989999999984
Eb:maj,27.787784,28.961578,1.173794000000001
Db:maj,28.961578,30.854022,1.8924440000000011
F:min,30.854022,32.027816,1.173794000000001
Ab:maj,32.027816,33.87235,1.844533999999996
Eb:maj,33.87235,34.998235,1.1258850000000038
Db:maj,34.998235,36.938589,1.9403539999999992
F:min,36.938589,38.112383,1.173794000000001
Ab:maj,38.112383,39.885052,1.7726690000000005
Eb:maj,39.885052,41.082801,1.1977490000000017
Db:maj,41.082801,43.09502,2.0122189999999947
F:min,43.09502,44.101129,1.0061090000000021
Ab:maj,44.101129,46.137303,2.0361740000000026
Eb:maj,46.137303,47.143413,1.0061099999999996
Db:maj,47.143413,49.011902,1.8684889999999967
F:min,49.011902,50.209651,1.1977490000000017
Ab:maj,50.209651,52.054185,1.844533999999996
Eb:maj,52.054185,53.275889,1.2217040000000026
Db:maj,53.275889,55.168333,1.8924439999999976
F:min,55.168333,56.246307,1.0779740000000047
Eb:maj,56.246307,58.201463,1.9551559999999952
C:min,58.201463,59.363704,1.1622410000000016
Db:maj,59.363704,61.241171,1.8774670000000029
F:min,61.241171,62.425763,1.184592000000002
Eb:maj,62.425763,63.498601,1.0728379999999973
Db:maj,63.498601,67.231183,3.7325820000000007
F:min,67.231183,68.460477,1.229293999999996
Db:maj,68.460477,70.24854,1.7880630000000082
Ab:maj,70.24854,71.477834,1.229293999999996
Eb:maj,71.477834,73.3553,1.8774659999999983
F:min,73.3553,74.584594,1.229293999999996
Db:maj,74.584594,76.372657,1.7880630000000082
Ab:maj,76.372657,77.601951,1.229293999999996
Eb:maj,77.601951,79.479418,1.8774669999999958
F:min,79.479418,80.708711,1.2292929999999984
Db:maj,80.708711,82.496774,1.7880630000000082
Ab:maj,82.496774,83.614314,1.117539999999991
Eb:maj,83.614314,85.447079,1.832765000000009
F:min,85.447079,86.586969,1.139889999999994
Db:maj,86.586969,88.620892,2.0339230000000015
Ab:maj,88.620892,89.850185,1.2292929999999984
Eb:maj,89.850185,91.571196,1.7210110000000043
F:min,91.571196,92.755788,1.184591999999995
Db:maj,92.755788,94.633255,1.87746700000001
Ab:maj,94.633255,95.750794,1.1175389999999936
Eb:maj,95.750794,97.672962,1.9221679999999992
F:min,97.672962,98.812853,1.1398910000000058
Db:maj,98.812853,100.645618,1.8327649999999949
Ab:maj,100.645618,101.852561,1.2069429999999954
Eb:maj,101.852561,103.730027,1.8774660000000125
F:min,103.730027,104.914619,1.184591999999995
Db:maj,104.914619,106.792086,1.8774669999999958
Ab:maj,106.792086,107.887275,1.0951890000000049
Eb:maj,107.887275,109.831794,1.9445189999999997
F:min,109.831794,110.971684,1.139889999999994
Db:maj,110.971684,112.893852,1.9221679999999992
Ab:maj,112.893852,114.011392,1.1175400000000053
Eb:maj,114.011392,116.022963,2.0115710000000036
F:min,116.022963,117.006398,0.9834350000000001
Ab:maj,117.006398,119.04032,2.03392199999999
Eb:maj,119.04032,120.068456,1.0281360000000035
Db:maj,120.068456,121.968274,1.8998179999999962
F:min,121.968274,123.108164,1.1398900000000083
Ab:maj,123.108164,124.985631,1.8774669999999958
Eb:maj,124.985631,126.147872,1.1622410000000087
Db:maj,126.147872,128.047689,1.8998169999999845
F:min,128.047689,129.18758,1.1398910000000058
Ab:maj,129.18758,131.065046,1.8774659999999983
Eb:maj,131.065046,132.227287,1.1622409999999945
Db:maj,132.227287,134.127105,1.8998180000000104
F:min,134.127105,135.266995,1.1398900000000083
Ab:maj,135.266995,137.144462,1.8774669999999958
Eb:maj,137.144462,138.306703,1.1622409999999945
Db:maj,138.306703,140.20652,1.899817000000013
F:min,140.20652,141.346411,1.1398909999999773
Ab:maj,141.346411,143.223877,1.8774659999999983
Eb:maj,143.223877,144.386118,1.162241000000023
Db:maj,144.386118,146.285936,1.899817999999982
F:min,146.285936,147.425826,1.1398900000000083
Eb:maj,147.425826,149.303293,1.8774669999999958
C:min,149.303293,150.465534,1.1622409999999945
Db:maj,150.465534,152.365351,1.899817000000013
F:min,152.365351,153.572294,1.2069429999999954
Eb:maj,153.572294,154.756886,1.1845920000000092
Db:maj,154.756886,158.400065,3.6431790000000035
F:min,158.400065,159.562306,1.1622409999999945
Db:maj,159.562306,161.417422,1.8551159999999811
Ab:maj,161.417422,162.646716,1.22929400000001
Eb:maj,162.646716,164.524182,1.8774659999999983
F:min,164.524182,165.686424,1.162241999999992
Db:maj,165.686424,167.541539,1.855115000000012
Ab:maj,167.541539,168.659079,1.117539999999991
Eb:maj,168.659079,170.558896,1.899817000000013
F:min,170.558896,171.698787,1.1398910000000058
Db:maj,171.698787,173.598604,1.8998169999999845
Ab:maj,173.598604,174.783196,1.1845920000000092
Eb:maj,174.783196,176.615961,1.8327649999999949
F:min,176.615961,177.822904,1.2069429999999954
Db:maj,177.822904,179.633318,1.8104140000000086
Ab:maj,179.633318,180.795559,1.1622409999999945
Eb:maj,180.795559,182.740078,1.9445190000000139
F:min,182.740078,183.92467,1.1845919999999808
Db:maj,183.92467,185.802137,1.8774669999999958
Ab:maj,185.802137,186.919676,1.117539000000022
Eb:maj,186.919676,188.841844,1.9221679999999992
F:min,188.841844,189.981735,1.1398909999999773
Db:maj,189.981735,191.8145,1.8327650000000233
Ab:maj,191.8145,193.021443,1.2069429999999954
Eb:maj,193.021443,194.831857,1.8104140000000086
F:min,194.831857,195.994098,1.1622409999999945
Db:maj,195.994098,197.871564,1.8774659999999983
Ab:maj,197.871564,198.989104,1.117539999999991
Eb:maj,198.989104,200.888921,1.899817000000013
F:min,200.888921,202.028812,1.1398909999999773
Db:maj,202.028812,203.973331,1.9445190000000139
Ab:maj,203.973331,205.06852,1.0951890000000049
Eb:maj,205.06852,206.945986,1.8774659999999983
F:min,206.945986,208.152929,1.2069429999999954
Db:maj,208.152929,210.030396,1.8774669999999958
Eb:maj,210.030396,211.170286,1.1398900000000083
Ab:maj,211.170286,213.070103,1.8998169999999845
F:min,213.070103,214.277046,1.2069430000000239
Db:maj,214.277046,216.132162,1.8551159999999811
Eb:maj,216.132162,217.361455,1.2292930000000126
Ab:maj,217.361455,219.216571,1.8551159999999811
F:min,219.216571,220.423514,1.2069430000000239
Db:maj,220.423514,222.233928,1.8104139999999802
Eb:maj,222.233928,223.329117,1.0951890000000049
Ab:maj,223.329117,225.206583,1.8774659999999983
F:maj,225.206583,226.413526,1.2069429999999954
Db:maj,226.413526,228.290993,1.8774669999999958
Eb:maj,228.290993,231.330701,3.0397080000000187
F:min,231.330701,232.492942,1.1622409999999945
Db:maj,232.492942,234.348058,1.8551160000000095
Ab:maj,234.348058,235.577351,1.2292929999999842
Eb:maj,235.577351,237.454818,1.8774669999999958
F:min,237.454818,238.617059,1.162241000000023
Db:maj,238.617059,240.472175,1.8551159999999811
Ab:maj,240.472175,241.589714,1.1175389999999936
Eb:maj,241.589714,243.489532,1.8998180000000104
F:min,243.489532,244.629422,1.1398900000000083
Db:maj,244.629422,246.529239,1.8998169999999845
Ab:maj,246.529239,247.713831,1.1845920000000092
Eb:maj,247.713831,249.546596,1.8327649999999949
F:min,249.546596,250.641785,1.0951890000000049
Db:maj,250.641785,252.563953,1.9221679999999992
Ab:maj,252.563953,253.726195,1.162241999999992
Eb:maj,253.726195,255.670713,1.9445180000000164
F:min,255.670713,256.855305,1.1845919999999808
Db:maj,256.855305,258.732772,1.8774670000000242
Ab:maj,258.732772,259.850312,1.1175399999999627
Eb:maj,259.850312,261.77248,1.9221679999999992
F:min,261.77248,262.91237,1.1398900000000367
Db:maj,262.91237,264.745135,1.8327649999999949
Ab:maj,264.745135,265.952078,1.206942999999967
Eb:maj,265.952078,267.762492,1.810414000000037
F:min,267.762492,268.924733,1.1622409999999945
Db:maj,268.924733,270.8022,1.8774670000000242
Ab:maj,270.8022,271.919739,1.1175389999999652
Eb:maj,271.919739,273.819557,1.899817999999982
F:min,273.819557,274.959447,1.1398900000000367
Db:maj,274.959447,276.903966,1.9445190000000139
Ab:maj,276.903966,277.999155,1.095188999999948
Eb:maj,277.999155,279.876622,1.8774670000000242
F:min,279.876622,281.016512,1.1398899999999799
Ab:maj,281.016512,282.961031,1.9445190000000139
Eb:maj,282.961031,284.05622,1.0951890000000049
Db:maj,284.05622,285.956037,1.8998169999999845
F:min,285.956037,292.102505,6.146468000000027
