chord,onset,offset,duration
N,0.0,7.14764,7.14764
Eb:min,7.14764,8.198764,1.0511240000000006
Bb:min7,8.198764,8.93455,0.7357859999999992
Eb:min,8.93455,9.985674,1.0511239999999997
Bb:min7,9.985674,10.72146,0.7357860000000009
Eb:min,10.72146,11.772584,1.0511239999999997
Bb:min7,11.772584,12.50837,0.7357859999999992
Eb:min,12.50837,13.559494,1.0511240000000015
Bb:min7,13.559494,14.29528,0.7357859999999992
Eb:min,14.29528,15.346404,1.0511239999999997
Bb:min7,15.346404,16.08219,0.7357860000000009
Eb:min,16.08219,17.133314,1.051123999999998
Bb:min7,17.133314,17.8691,0.7357860000000009
Eb:min,17.8691,18.920224,1.0511240000000015
Bb:min7,18.920224,19.65601,0.7357859999999974
Eb:min,19.65601,20.707134,1.0511240000000015
Bb:min7,20.707134,21.44292,0.7357860000000009
Eb:min,21.44292,22.494044,1.051123999999998
Bb:min7,22.494044,23.177274,0.6832300000000018
Eb:min,23.177274,24.228398,1.051123999999998
Bb:min7,24.228398,24.964184,0.7357860000000009
Eb:min,24.964184,26.015308,1.0511240000000015
Bb:min7,26.015308,26.751094,0.7357859999999974
Eb:min,26.751094,27.802218,1.0511240000000015
Bb:min7,27.802218,28.538004,0.7357860000000009
Eb:min,28.538004,29.589128,1.051123999999998
Bb:min7,29.589128,30.324914,0.7357860000000009
Eb:min,30.324914,31.376038,1.0511240000000015
Bb:min7,31.376038,32.111824,0.7357859999999974
Eb:min,32.111824,33.162948,1.0511240000000015
Bb:min7,33.162948,33.898734,0.7357859999999974
Eb:min,33.898734,34.887112,0.9883780000000044
Bb:min7,34.887112,35.53931,0.6521979999999985
Cb:maj7,35.53931,36.684212,1.1449020000000019
Ab:min6,36.684212,37.367442,0.6832299999999947
Bb:min7,37.367442,38.444844,1.0774020000000064
Eb:min7,38.444844,39.101796,0.6569519999999969
Ab:min7,39.101796,40.205475,1.1036789999999996
Db:7,40.205475,40.914984,0.7095089999999971
Gb:maj7,40.914984,41.992385,1.0774010000000018
Gb:aug(7),41.992385,42.75445,0.7620649999999998
Cb:maj7,42.75445,43.85813,1.1036800000000042
Ab:min6,43.85813,44.54136,0.6832299999999947
Bb:min7,44.54136,45.618762,1.0774019999999993
Eb:min7,45.618762,46.32827,0.7095080000000067
Ab:min7,46.32827,47.353116,1.0248459999999966
Db:7,47.353116,48.141458,0.7883420000000001
"F:7(*3,4)",48.141458,49.166304,1.0248459999999966
Bb:7,49.166304,49.90209,0.7357860000000045
Eb:min,49.90209,50.953214,1.0511240000000015
Bb:min7,50.953214,51.689,0.7357859999999974
Eb:min,51.689,52.740124,1.0511240000000015
Bb:min7,52.740124,53.47591,0.7357859999999974
Eb:min,53.47591,54.527034,1.0511240000000015
Bb:min7,54.527034,55.26282,0.7357859999999974
Eb:min,55.26282,56.313944,1.0511240000000015
Bb:min7,56.313944,57.04973,0.7357859999999974
Eb:min,57.04973,58.100854,1.0511240000000015
Bb:min7,58.100854,58.83664,0.7357860000000045
Eb:min,58.83664,59.887764,1.0511239999999944
Bb:min7,59.887764,60.62355,0.7357860000000045
Eb:min,60.62355,61.74849,1.1249399999999952
Bb:min7,61.74849,62.49355,0.7450600000000023
Eb:min,62.49355,63.539248,1.0456980000000016
Bb:min7,63.539248,64.258166,0.7189180000000022
Eb:min,64.258166,65.362685,1.1045189999999963
Bb:min7,65.362685,66.088138,0.7254530000000017
Eb:min,66.088138,67.159979,1.0718410000000063
Bb:min7,67.159979,67.891238,0.7312589999999943
Eb:min,67.891238,68.942361,1.051123000000004
Bb:min7,68.942361,69.678148,0.7357869999999878
Eb:min,69.678148,70.729271,1.051123000000004
Bb:min7,70.729271,71.465058,0.735787000000002
Eb:min,71.465058,72.516181,1.051123000000004
Bb:min7,72.516181,73.251968,0.735787000000002
Eb:min,73.251968,74.303091,1.0511229999999898
Bb:min7,74.303091,75.038878,0.735787000000002
Eb:min,75.038878,76.090002,1.0511240000000015
Bb:min7,76.090002,76.825788,0.7357860000000045
Eb:min,76.825788,77.876912,1.0511240000000015
Bb:min7,77.876912,78.612698,0.7357859999999903
Eb:min,78.612698,79.663822,1.0511240000000015
Bb:min7,79.663822,80.399608,0.7357860000000045
Eb:min,80.399608,81.450732,1.0511240000000015
Bb:min7,81.450732,82.186518,0.7357860000000045
Eb:min,82.186518,83.237642,1.0511239999999873
Bb:min7,83.237642,83.973428,0.7357860000000045
Eb:min,83.973428,85.024552,1.0511240000000015
Bb:min7,85.024552,85.760338,0.7357860000000045
Eb:min,85.760338,86.811462,1.0511240000000015
Bb:min7,86.811462,87.547248,0.7357859999999903
Eb:min,87.547248,88.598372,1.0511240000000015
Bb:min7,88.598372,89.334158,0.7357860000000045
Eb:min,89.334158,90.385282,1.0511240000000015
Bb:min7,90.385282,91.121068,0.7357859999999903
Eb:min,91.121068,92.172192,1.0511240000000015
Bb:min7,92.172192,92.907978,0.7357860000000045
Eb:min,92.907978,93.959102,1.0511240000000015
Bb:min7,93.959102,94.694888,0.7357860000000045
Eb:min,94.694888,95.746012,1.0511239999999873
Bb:min7,95.746012,96.481798,0.7357860000000045
Eb:min,96.481798,97.532922,1.0511240000000015
Bb:min7,97.532922,98.268708,0.7357860000000045
Eb:min,98.268708,99.319832,1.0511240000000015
Bb:min7,99.319832,100.055618,0.7357859999999903
Eb:min,100.055618,101.106742,1.0511240000000015
Bb:min7,101.106742,101.883701,0.7769590000000051
Eb:min,101.883701,102.893652,1.009951000000001
Bb:min7,102.893652,103.629438,0.7357859999999903
Eb:min,103.629438,104.680562,1.0511240000000015
Bb:min7,104.680562,105.416348,0.7357860000000045
Eb:min,105.416348,106.467472,1.0511240000000015
Bb:min7,106.467472,107.203258,0.7357860000000045
Eb:min,107.203258,108.254382,1.0511240000000015
Bb:min7,108.254382,108.990168,0.7357859999999903
Eb:min,108.990168,110.041292,1.0511240000000015
Bb:min7,110.041292,110.777078,0.7357860000000045
Eb:min,110.777078,111.828202,1.0511240000000015
Bb:min7,111.828202,112.563988,0.7357859999999903
Eb:min,112.563988,113.536702,0.9727140000000105
Bb:min7,113.536702,114.255388,0.718685999999991
Eb:min,114.255388,115.288247,1.032859000000002
Bb:min7,115.288247,116.000629,0.7123820000000052
Eb:min,116.000629,117.026721,1.0260919999999913
Bb:min7,117.026721,117.712471,0.6857499999999987
Eb:min,117.712471,118.763595,1.0511240000000015
Bb:min7,118.763595,119.438363,0.6747680000000003
Eb:min,119.438363,120.477525,1.0391620000000046
Bb:min7,120.477525,121.145037,0.6675120000000021
Eb:min,121.145037,122.150288,1.0052510000000012
Bb:min7,122.150288,122.843418,0.6931299999999965
Eb:min,122.843418,123.849903,1.0064849999999979
Bb:min7,123.849903,124.577602,0.7276990000000012
Eb:min,124.577602,125.549163,0.9715609999999941
Bb:min7,125.549163,126.300758,0.7515950000000089
Eb:min,126.300758,127.262358,0.9616000000000042
Bb:min7,127.262358,127.980411,0.7180529999999976
Eb:min,127.980411,128.973825,0.9934140000000014
Bb:min7,128.973825,129.673136,0.6993109999999945
Eb:min,129.673136,130.666549,0.9934130000000039
Bb:min7,130.666549,131.381437,0.714888000000002
Eb:min,131.381437,132.346202,0.9647649999999999
Bb:min7,132.346202,133.045513,0.6993109999999945
Eb:min,133.045513,134.066193,1.0206799999999987
Bb:min7,134.066193,134.740447,0.6742539999999906
Eb:min,134.740447,135.745698,1.0052510000000154
Bb:min7,135.745698,136.444033,0.6983349999999859
Eb:min,136.444033,137.425203,0.9811700000000201
Bb:min7,137.425203,138.136757,0.7115539999999783
Eb:min,138.136757,139.156313,1.0195560000000228
Bb:min7,139.156313,139.852518,0.696204999999992
Eb:min,139.852518,140.842502,0.9899839999999926
Bb:min7,140.842502,141.509134,0.6666319999999928
Eb:min,141.509134,142.496012,0.9868780000000186
Bb:min7,142.496012,143.211528,0.7155159999999796
Eb:min,143.211528,144.175665,0.9641370000000222
Bb:min7,144.175665,144.842298,0.6666329999999903
Eb:min,144.842298,145.868389,1.026091000000008
Bb:min7,145.868389,146.570538,0.7021489999999915
Eb:min,146.570538,147.567649,0.9971109999999896
Bb:min7,147.567649,148.280031,0.7123820000000194
Eb:min,148.280031,149.279813,0.999781999999982
Bb:min7,149.279813,149.978585,0.6987720000000195
Eb:min,149.978585,150.996096,1.0175109999999847
Bb:min7,150.996096,151.694868,0.6987720000000195
Eb:min,151.694868,152.717714,1.022845999999987
Bb:min7,152.717714,153.384347,0.6666329999999903
Eb:min,153.384347,154.37776,0.9934130000000039
Bb:min7,154.37776,155.103213,0.7254530000000159
Eb:min,155.103213,156.083648,0.980435
Bb:min7,156.083648,156.819197,0.7355489999999918
Eb:min,156.819197,157.867778,1.0485809999999844
Bb:min7,157.867778,158.586696,0.7189180000000022
Eb:min,158.586696,159.602027,1.0153310000000033
Bb:min7,159.602027,160.337577,0.7355500000000177
Eb:min,160.337577,161.344726,1.0071489999999983
Bb:min7,161.344726,162.08325,0.738523999999984
Eb:min,162.08325,163.120407,1.0371570000000077
Bb:min7,163.120407,163.855956,0.7355489999999918
Eb:min,163.855956,164.815137,0.959181000000001
Bb:min7,164.815137,165.596757,0.7816200000000038
Eb:min,165.596757,166.59936,1.0026029999999935
Bb:min7,166.59936,167.324813,0.7254530000000159
Eb:min,167.324813,168.416364,1.0915509999999813
Bb:min7,168.416364,169.115137,0.698773000000017
Eb:min,169.115137,170.128592,1.0134549999999933
Bb:min7,170.128592,170.806901,0.6783090000000129
Eb:min,170.806901,171.899744,1.0928429999999878
Bb:min7,171.899744,172.633516,0.7337719999999877
Eb:min,172.633516,173.625146,0.9916300000000149
Bb:min7,173.625146,174.32528,0.7001339999999914
Eb:min,174.32528,175.402833,1.0775529999999947
Bb:min7,175.402833,176.10868,0.7058470000000057
Eb:min,176.10868,177.10811,0.999430000000018
Bb:min7,177.10811,177.84366,0.7355499999999893
Eb:min,177.84366,178.836652,0.9929919999999868
Bb:min7,178.836652,179.572202,0.7355500000000177
Eb:min,179.572202,180.565969,0.9937669999999912
Bb:min7,180.565969,181.284887,0.7189180000000022
Eb:min,181.284887,182.343656,1.0587690000000123
Bb:min7,182.343656,183.06911,0.7254539999999849
Eb:min,183.06911,184.101737,1.0326270000000193
Bb:min7,184.101737,184.801047,0.699309999999997
Eb:min,184.801047,185.866353,1.0653059999999925
Bb:min7,185.866353,186.535406,0.669052999999991
Eb:min,186.535406,187.53947,1.0040639999999996
Bb:min7,187.53947,188.258388,0.7189180000000022
Eb:min,188.258388,189.297551,1.039163000000002
Bb:min7,189.297551,190.036075,0.7385240000000124
Eb:min,190.036075,191.01,0.97392499999998
Bb:min7,191.01,191.774549,0.7645490000000166
Eb:min,191.774549,192.812096,1.0375469999999893
Bb:min7,192.812096,193.526093,0.7139970000000062
Eb:min,193.526093,194.486829,0.9607359999999971
Bb:min7,194.486829,195.231889,0.7450599999999952
Eb:min,195.231889,196.19916,0.9672710000000109
Bb:min7,196.19916,196.898471,0.6993109999999945
Eb:min,196.898471,197.911908,1.0134370000000104
Bb:min7,197.911908,198.647457,0.7355489999999918
Eb:min,198.647457,199.643429,0.9959719999999948
Bb:min7,199.643429,200.349275,0.7058460000000082
Eb:min,200.349275,201.362296,1.0130209999999806
Bb:min7,201.362296,202.055504,0.6932080000000269
Eb:min,202.055504,203.073015,1.0175109999999847
Bb:min7,203.073015,203.771787,0.6987719999999911
Eb:min,203.771787,204.8131,1.0413130000000024
Bb:min7,204.8131,205.492804,0.6797040000000152
Eb:min,205.492804,206.499289,1.0064849999999979
Bb:min7,206.499289,207.1986,0.6993109999999945
Eb:min,207.1986,208.250834,1.0522339999999986
Bb:min7,208.250834,208.878253,0.6274190000000033
Eb:min,208.878253,209.943558,1.065304999999995
Bb:min7,209.943558,210.649177,0.7056190000000129
Eb:min,210.649177,211.721245,1.0720680000000016
Bb:min7,211.721245,212.381342,0.6600969999999791
Eb:min,212.381342,213.394363,1.013021000000009
Bb:min7,213.394363,214.093674,0.6993109999999945
Eb:min,214.093674,215.119765,1.026091000000008
Bb:min7,215.119765,215.748988,0.6292229999999961
Eb:min,215.748988,216.832096,1.08310800000001
Bb:min7,216.832096,217.526566,0.6944699999999955
Eb:min,217.526566,218.52482,0.9982540000000029
Bb:min7,218.52482,219.191453,0.6666329999999903
Eb:min,219.191453,220.235841,1.0443879999999979
Bb:min7,220.235841,220.934613,0.6987720000000195
Eb:min,220.934613,221.929876,0.9952629999999942
Bb:min7,221.929876,222.596509,0.6666329999999903
Eb:min,222.596509,223.643888,1.0473790000000065
Bb:min7,223.643888,224.315375,0.6714869999999848
Eb:min,224.315375,225.367609,1.0522339999999986
Bb:min7,225.367609,226.034425,0.6668160000000114
Eb:min,226.034425,227.051935,1.0175099999999873
Bb:min7,227.051935,227.694288,0.6423530000000142
Eb:min,227.694288,228.739987,1.0456990000000133
Bb:min7,228.739987,229.442472,0.7024849999999958
Eb:min,229.442472,230.504603,1.0621309999999937
Bb:min7,230.504603,231.190842,0.6862390000000005
Eb:min,231.190842,232.216934,1.0260920000000056
Bb:min7,232.216934,232.960851,0.743916999999982
Eb:min,232.960851,234.015139,1.0542880000000139
Bb:min7,234.015139,234.73843,0.723290999999989
Eb:min,234.73843,235.768199,1.029769000000016
Bb:min7,235.768199,236.438941,0.67074199999999
Eb:min,236.438941,237.510782,1.0718410000000063
Bb:min7,237.510782,238.220032,0.7092499999999973
Eb:min,238.220032,239.249801,1.0297689999999875
Bb:min7,239.249801,239.960833,0.7110320000000172
Eb:min,239.960833,240.978343,1.0175099999999873
Bb:min7,240.978343,241.647826,0.6694830000000138
Eb:min,241.647826,242.667382,1.0195559999999944
Bb:min7,242.667382,243.373228,0.7058460000000082
Eb:min,243.373228,244.379713,1.0064849999999979
Bb:min7,244.379713,245.085162,0.7054489999999873
Eb:min,245.085162,246.059366,0.9742040000000145
Bb:min7,246.059366,246.719463,0.6600969999999791
Eb:min,246.719463,247.782178,1.0627149999999972
Bb:min7,247.782178,248.444866,0.6626880000000028
Eb:min,248.444866,249.444815,0.9999490000000151
Bb:min7,249.444815,250.104912,0.6600970000000075
Eb:min,250.104912,251.131003,1.0260909999999797
Bb:min7,251.131003,251.827701,0.6966979999999978
Eb:min,251.827701,252.857471,1.0297700000000134
Bb:min7,252.857471,253.507206,0.6497349999999926
Eb:min,253.507206,254.524717,1.0175110000000132
Bb:min7,254.524717,255.21123,0.6865129999999908
Eb:min,255.21123,256.240999,1.0297689999999875
Bb:min7,256.240999,256.890735,0.6497360000000185
Eb:min,256.890735,257.932764,1.0420290000000136
Bb:min7,257.932764,258.668313,0.7355489999999918
Eb:min,258.668313,259.698083,1.029769999999985
Bb:min7,259.698083,260.372363,0.6742800000000102
Eb:min,260.372363,261.470346,1.0979829999999993
Bb:min7,261.470346,262.07636,0.606014000000016
Eb:min,262.07636,263.265499,1.1891389999999546
Bb:min7,263.265499,263.934273,0.6687740000000417
Eb:min,263.934273,265.0063,1.0720269999999914
Bb:min7,265.0063,265.717331,0.7110309999999913
Eb:min,265.717331,266.744587,1.0272560000000226
Bb:min7,266.744587,267.470392,0.7258049999999798
Eb:min,267.470392,268.487902,1.0175100000000157
Bb:min7,268.487902,269.211193,0.7232909999999606
Eb:min,269.211193,270.22807,1.0168770000000222
Bb:min7,270.22807,270.964253,0.7361829999999827
Eb:min,270.964253,271.981763,1.0175100000000157
Bb:min7,271.981763,272.705054,0.7232910000000174
Eb:min,272.705054,273.705017,0.9999629999999797
Bb:min7,273.705017,274.43047,0.7254530000000159
Eb:min,274.43047,275.451106,1.0206359999999677
Bb:min7,275.451106,276.149878,0.6987720000000195
Cb:maj7,276.149878,277.175429,1.0255510000000072
Ab:min6,277.175429,277.907418,0.7319889999999987
Bb:min7,277.907418,278.944967,1.0375490000000127
Eb:min7,278.944967,279.712364,0.7673969999999599
Ab:min7,279.712364,280.69159,0.9792260000000397
Db:7,280.69159,281.417043,0.725452999999959
Gb:maj7,281.417043,282.438828,1.0217850000000226
Gb:aug(7),282.438828,283.100823,0.6619949999999903
Cb:maj7,283.100823,284.179629,1.078805999999986
Ab:min6,284.179629,284.829365,0.6497360000000185
Bb:min7,284.829365,285.846875,1.0175100000000157
Eb:min7,285.846875,286.606943,0.7600679999999898
Ab:min7,286.606943,287.575417,0.9684740000000147
Db:7,287.575417,288.200634,0.6252169999999637
"F:7(*3,4)",288.200634,289.344744,1.144110000000012
Bb:7,289.344744,290.076286,0.7315419999999904
Eb:min,290.076286,291.093796,1.0175100000000157
Bb:min7,291.093796,291.817087,0.7232910000000174
Eb:min,291.817087,292.834762,1.017674999999997
Bb:min7,292.834762,293.570147,0.735385000000008
Eb:min,293.570147,294.587657,1.0175099999999588
Bb:min7,294.587657,295.310948,0.7232910000000174
Eb:min,295.310948,296.311709,1.0007610000000113
Bb:min7,296.311709,297.064008,0.7522989999999936
Eb:min,297.064008,298.081518,1.0175100000000157
Bb:min7,298.081518,298.804809,0.7232909999999606
Eb:min,298.804809,299.782121,0.9773120000000404
Bb:min7,299.782121,300.557869,0.7757479999999646
Eb:min,300.557869,301.520594,0.9627250000000345
Bb:min7,301.520594,302.246048,0.7254539999999565
Eb:min,302.246048,303.272139,1.026091000000008
Bb:min7,303.272139,304.010524,0.7383849999999939
Eb:min,304.010524,305.028035,1.0175110000000132
Bb:min7,305.028035,305.751325,0.72329000000002
Eb:min,305.751325,306.805613,1.0542879999999855
Bb:min7,306.805613,307.504385,0.6987720000000195
Eb:min,307.504385,308.521896,1.0175110000000132
Bb:min7,308.521896,309.245186,0.7232899999999631
Eb:min,309.245186,310.232569,0.9873830000000225
Bb:min7,310.232569,310.950682,0.7181129999999598
Eb:min,310.950682,311.968193,1.0175110000000132
Bb:min7,311.968193,312.734498,0.7663049999999885
Eb:min,312.734498,313.745771,1.011273000000017
Bb:min7,313.745771,314.461112,0.7153410000000235
Eb:min,314.461112,315.500275,1.0391629999999736
Bb:min7,315.500275,316.264942,0.7646670000000313
Eb:min,316.264942,317.314817,1.049874999999986
Bb:min7,317.314817,318.030201,0.7153839999999718
Eb:min,318.030201,320.436495,2.4062940000000026
N,320.436495,324.1665,3.7300050000000056
